Predicting the Female Pulse Rate
…
The mean_ppd is the sample average posterior predictive distribution of the outcome variable (for details see help('summary.stanreg')).

MCMC diagnostics
              mcse Rhat n_eff
(Intercept)   0.0  1.0  2856 
sigma         0.0  1.0  2829 
mean_PPD      0.0  1.0  3562 
log-posterior 0.0  1.0  1650 

For each parameter, mcse is Monte Carlo standard error, n_eff is a crude measure of effective sample size, and Rhat is the potential scale reduction factor on split chains (at convergence Rhat=1).

Temperance - We create posteriors of the quantities of interest. Using the model from courage to answer the questions.

# A tibble: 4,000 × 2
     `1`   `2`
   <dbl> <dbl>
 1  61.7  82.8
 2  73.4  72.4
 3  70.2  61.0
 4  98.4  68.6
 5  96.8  87.7
 6  82.0  76.1
 7  86.4  91.7
 8  82.5  62.5
 9  66.0  80.3
10  91.1  59.4
# ℹ 3,990 more rows
…
